{
  "posts": [
    {
      "title": "testaaa",
      "body": "testowy wpis",
      "id": 1
    },
    {
      "title": "afdfds",
      "body": "sdffdsfds",
      "id": 2
    },
    {
      "title": "fdfdsdfsfsddfsfdfds",
      "body": "fdsdsffdsfsdfdsfsd",
      "id": 3
    },
    {
      "title": "dsfdfsfds",
      "body": "dfssdfdfsasdsfdfsfsdasddas",
      "id": 4
    }
  ]
}